<svg xmlns="http://www.w3.org/2000/svg" width="56.015" height="53.399" viewBox="0 0 56.015 53.399">
  <g id="Group_1712" data-name="Group 1712" transform="translate(-126.474 -228.209)">
    <path id="Path_816" data-name="Path 816" d="M154.482,229.209l-27.141,47.01h54.283Z" transform="translate(0 0)" fill="#fff" stroke="#ea5d10" stroke-miterlimit="10" stroke-width="1"/>
    <circle id="Ellipse_10" data-name="Ellipse 10" cx="20.593" cy="20.593" r="20.593" transform="translate(133.889 239.922)" fill="#fff" stroke="#ea5d10" stroke-miterlimit="10" stroke-width="1"/>
    <circle id="Ellipse_11" data-name="Ellipse 11" cx="15" cy="15" r="15" transform="translate(139.482 245.515)" fill="#fff" stroke="#ea5d10" stroke-miterlimit="10" stroke-width="1"/>
    <path id="Path_817" data-name="Path 817" d="M171.475,272.3v-7.7h-8.7v7.7h-7.7V281h7.7v7.7h8.7V281h7.7v-8.7Z" transform="translate(-12.644 -16.133)" fill="#fff" stroke="#ea5d10" stroke-miterlimit="10" stroke-width="1"/>
  </g>
</svg>
